\relax 
\providecommand\hyper@newdestlabel[2]{}
\providecommand\HyperFirstAtBeginDocument{\AtBeginDocument}
\HyperFirstAtBeginDocument{\ifx\hyper@anchor\@undefined
\global\let\oldcontentsline\contentsline
\gdef\contentsline#1#2#3#4{\oldcontentsline{#1}{#2}{#3}}
\global\let\oldnewlabel\newlabel
\gdef\newlabel#1#2{\newlabelxx{#1}#2}
\gdef\newlabelxx#1#2#3#4#5#6{\oldnewlabel{#1}{{#2}{#3}}}
\AtEndDocument{\ifx\hyper@anchor\@undefined
\let\contentsline\oldcontentsline
\let\newlabel\oldnewlabel
\fi}
\fi}
\global\let\hyper@last\relax 
\gdef\HyperFirstAtBeginDocument#1{#1}
\providecommand\HyField@AuxAddToFields[1]{}
\providecommand\HyField@AuxAddToCoFields[2]{}
\select@language{english}
\@writefile{toc}{\select@language{english}}
\@writefile{lof}{\select@language{english}}
\@writefile{lot}{\select@language{english}}
\@writefile{toc}{\contentsline {section}{\numberline {1}Introduction}{1}{section.1}}
\@writefile{toc}{\contentsline {section}{\numberline {2}Methods}{1}{section.2}}
\@writefile{toc}{\contentsline {subsection}{\numberline {2.1}Parametric Indirect Inference}{1}{subsection.2.1}}
\newlabel{eq:auxmax}{{2.1}{1}{Parametric Indirect Inference}{equation.2.1}{}}
\newlabel{eq:ind_inf_estimator}{{2.2}{1}{Parametric Indirect Inference}{equation.2.2}{}}
\@writefile{toc}{\contentsline {subsection}{\numberline {2.2}Nonparametric Indirect Inference}{1}{subsection.2.2}}
\@writefile{toc}{\contentsline {section}{\numberline {3}Examples}{2}{section.3}}
\@writefile{toc}{\contentsline {subsection}{\numberline {3.1}First example}{2}{subsection.3.1}}
\@writefile{toc}{\contentsline {subsection}{\numberline {3.2}Second Example}{2}{subsection.3.2}}
\newlabel{example2}{{3.2}{2}{Second Example}{subsection.3.2}{}}
\@writefile{toc}{\contentsline {subsection}{\numberline {3.3}Third Example}{3}{subsection.3.3}}
\@writefile{toc}{\contentsline {subsection}{\numberline {3.4}Discussion and Questions}{3}{subsection.3.4}}
\@writefile{toc}{\contentsline {section}{\numberline {4}References}{4}{section.4}}
\@writefile{toc}{\contentsline {section}{\numberline {5}Some ideas}{4}{section.5}}
